3 0 callothersubr pop pop setcurrentpoint return
0 1 callothersubr return
0 2 callothersubr return
return
0 20 hstem 216 41 hstem 654 20 hstem return
-45 3 -10 10 -35 74 rrcurveto -249 568 rlineto -20 hlineto -208 -491 rlineto -64 -146 -12 -15 -48 -3 rrcurveto -19 vlineto 198 hlineto 19 vlineto -48 -20 13 28 hvcurveto 0 12 3 14 5 13 rrcurveto 46 117 rlineto 262 hlineto 41 -96 rlineto 12 -28 7 -25 0 -15 rrcurveto 0 -9 -6 -11 -8 -4 rrcurveto -12 -7 -8 -2 -36 0 rrcurveto -19 vlineto 255 hlineto closepath -490 257 rmoveto 115 275 rlineto 116 -275 rlineto closepath return
0 99 vstem 199 99 vstem return
-27 -22 -22 -27 hvcurveto -28 21 -22 27 vhcurveto 28 23 22 27 hvcurveto 27 -23 23 -27 vhcurveto closepath 199 hmoveto -27 -22 -22 -27 hvcurveto -28 21 -22 27 vhcurveto 28 23 22 27 hvcurveto 27 -23 23 -27 vhcurveto closepath return
154 97 rlineto 21 13 9 13 0 16 rrcurveto 20 -13 12 -22 vhcurveto -15 0 -9 -5 -18 -18 rrcurveto -147 -148 rlineto closepath return
-147 148 rlineto -18 18 -9 5 -15 0 rrcurveto -21 -13 -12 -19 hvcurveto 0 -16 10 -15 19 -12 rrcurveto 154 -97 rlineto closepath return
-125 167 rlineto -62 hlineto -124 -167 rlineto 34 hlineto 121 103 rlineto 122 -103 rlineto closepath return
744 56 hstem return
790 55 hstem return
744 56 hstem return
-17 -37 -13 -13 -23 0 rrcurveto -15 0 -19 5 -19 10 rrcurveto -24 12 rlineto 12 1 3 callothersubr pop callsubr -24 12 -24 6 -22 0 rrcurveto -50 0 -36 -36 -15 -65 rrcurveto 29 hlineto 11 31 17 15 23 0 rrcurveto 12 0 14 -4 15 -7 rrcurveto 23 -11 rlineto 13 1 3 callothersubr pop callsubr 41 -20 15 -4 25 0 rrcurveto 55 0 29 30 21 76 rrcurveto closepath return
724 34 hstem 889 34 hstem 0 34 vstem 165 34 vstem return
-56 -45 -44 -55 hvcurveto -56 43 -44 55 vhcurveto 56 45 44 55 hvcurveto 54 -45 46 -53 vhcurveto closepath -3 -34 rmoveto 37 30 -29 -36 hvcurveto -37 -29 -29 -38 vhcurveto -35 -29 29 37 hvcurveto 35 30 30 34 vhcurveto closepath return
0 37 hstem 327 41 hstem 624 38 hstem 87 102 vstem return
0 19 hstem 643 19 hstem 87 102 vstem return
0 37 hstem 87 102 vstem return
-28 hlineto -50 -108 -43 -24 -143 0 rrcurveto -27 hlineto -48 0 -40 4 -9 7 rrcurveto -6 4 -2 9 0 19 rrcurveto 247 vlineto 154 hlineto 82 0 15 -13 13 -83 rrcurveto 23 hlineto 232 vlineto -23 hlineto -13 -82 -16 -13 -81 0 rrcurveto -154 hlineto 222 vlineto 28 6 6 27 vhcurveto 135 hlineto 113 0 22 -15 17 -90 rrcurveto 25 hlineto -3 143 rlineto -531 hlineto 18 1 3 callothersubr pop callsubr -19 vlineto 74 -6 13 -13 0 -71 rrcurveto -444 vlineto 0 -71 -14 -14 -73 -5 rrcurveto 19 1 3 callothersubr pop callsubr -19 vlineto 540 hlineto closepath return
0 19 hstem 643 19 hstem 97 102 vstem return
0 -75 -13 -12 -84 -3 rrcurveto -19 vlineto 297 hlineto 19 vlineto -82 3 -16 14 0 73 rrcurveto 444 vlineto 0 73 14 13 84 4 rrcurveto 19 vlineto -297 hlineto -19 vlineto 85 -5 12 -11 0 -74 rrcurveto closepath return
0 99 vstem 199 99 vstem return
-27 -22 -22 -27 hvcurveto -28 21 -22 27 vhcurveto 28 23 22 27 hvcurveto 27 -23 23 -27 vhcurveto closepath 199 hmoveto -27 -22 -22 -27 hvcurveto -28 21 -22 27 vhcurveto 28 23 22 27 hvcurveto 27 -23 23 -27 vhcurveto closepath return
-11 20 hstem 643 19 hstem 97 44 vstem 556 44 vstem return
0 19 hstem 97 44 vstem 556 44 vstem return
-11 20 hstem 97 44 vstem 556 44 vstem return
526 vlineto 0 60 10 37 19 13 rrcurveto 14 10 14 4 38 4 rrcurveto 19 vlineto -235 hlineto -19 vlineto 38 -3 14 -4 15 -9 rrcurveto 20 -14 9 -36 0 -62 rrcurveto -337 vlineto -385 484 rlineto -171 hlineto -19 vlineto 43 0 14 -8 40 -47 rrcurveto -441 vlineto 26 1 3 callothersubr pop callsubr 0 -103 -14 -19 -83 -6 rrcurveto -19 vlineto 235 hlineto 19 vlineto -77 4 -17 23 0 101 rrcurveto 392 vlineto 27 1 3 callothersubr pop callsubr 442 -550 rlineto closepath return
-14 36 hstem 640 36 hstem 0 114 vstem 540 114 vstem return
-195 -137 -141 -201 hvcurveto -206 133 -142 194 vhcurveto 192 135 142 203 hvcurveto 0 91 -28 83 -49 58 rrcurveto -60 71 -91 42 -94 0 rrcurveto closepath -8 -36 rmoveto 47 0 42 -15 36 -30 rrcurveto 57 -48 34 -96 0 -114 rrcurveto 0 -120 -27 -87 -55 -55 rrcurveto -34 -34 -46 -19 -50 0 rrcurveto -46 0 -43 15 -35 30 rrcurveto -56 46 -34 100 0 119 rrcurveto 0 95 26 95 39 48 rrcurveto 37 44 54 26 54 0 rrcurveto closepath return
642 20 hstem 29 86 vstem 348 101 vstem return
-14 36 hstem 635 41 hstem 29 86 vstem 348 101 vstem return
0 20 hstem 29 86 vstem 348 101 vstem return
-14 36 hstem 635 41 hstem 29 86 vstem 348 101 vstem return
-21 hlineto -4 -22 -11 -12 -17 0 rrcurveto -10 0 -16 4 -18 8 rrcurveto 32 1 3 callothersubr pop callsubr -37 14 -36 8 -35 0 rrcurveto -39 0 -42 -16 -32 -26 rrcurveto -39 -32 -19 -43 0 -55 rrcurveto 0 -79 44 -56 112 -59 rrcurveto 72 -39 52 -40 25 -38 rrcurveto 9 -14 5 -20 0 -25 rrcurveto -66 -50 -46 -73 vhcurveto -90 0 -62 55 -50 122 rrcurveto -23 hlineto 30 -212 rlineto 22 hlineto 33 1 3 callothersubr pop callsubr 1 19 12 14 15 0 rrcurveto 11 0 17 -4 19 -7 rrcurveto 34 1 3 callothersubr pop callsubr 38 -15 40 -8 40 0 rrcurveto 116 88 79 103 hvcurveto 0 83 -55 64 -132 72 rrcurveto -105 57 -42 44 0 55 rrcurveto 55 42 37 62 vhcurveto 45 0 42 -19 35 -36 rrcurveto 31 -32 14 -26 16 -59 rrcurveto 25 hlineto closepath return
-34 hlineto -122 -103 rlineto -121 103 rlineto -34 hlineto 124 -167 rlineto 62 hlineto closepath return
-14 44 hstem 643 19 hstem 90 102 vstem 553 44 vstem return
0 102 12 16 82 10 rrcurveto 19 vlineto -232 hlineto -19 vlineto 78 -6 16 -22 0 -100 rrcurveto -270 vlineto 0 -68 -7 -38 -16 -30 rrcurveto -27 -48 -64 -31 -75 0 rrcurveto -71 0 -49 24 -27 47 rrcurveto -18 32 -7 37 0 63 rrcurveto 320 vlineto 0 72 11 11 80 7 rrcurveto 19 vlineto -283 hlineto -19 vlineto 79 -6 11 -11 0 -73 rrcurveto -312 vlineto -173 81 -82 170 vhcurveto 109 0 75 35 39 68 rrcurveto 24 42 9 46 0 77 rrcurveto closepath return
0 19 hstem 642 20 hstem 293 102 vstem return
-219 hlineto -19 vlineto 52 -1 17 -8 0 -24 rrcurveto 0 -11 -4 -11 -10 -15 rrcurveto -143 -226 rlineto -148 222 rlineto -11 16 -6 16 0 13 rrcurveto 0 18 14 8 32 2 rrcurveto 25 1 rlineto 19 vlineto -280 hlineto -19 vlineto 48 -2 14 -13 100 -142 rrcurveto 131 -192 rlineto -174 vlineto 0 -87 -10 -10 -91 -4 rrcurveto -19 vlineto 306 hlineto 19 vlineto -89 2 -14 12 0 76 rrcurveto 194 vlineto 148 226 rlineto 61 89 26 21 51 4 rrcurveto closepath return
0 38 hstem 624 38 hstem return
-17 -56 -10 -21 -20 -22 rrcurveto -24 -25 -44 -14 -57 0 rrcurveto -257 hlineto 432 609 rlineto 15 vlineto -526 hlineto -20 -171 rlineto 26 hlineto 9 49 8 20 17 21 rrcurveto 23 29 45 14 66 0 rrcurveto 221 hlineto -437 -609 rlineto -15 vlineto 564 hlineto 24 176 rlineto closepath return
-10 57 hstem 436 24 hstem 19 83 vstem 250 81 vstem return
-10 58 hstem 19 83 vstem 250 81 vstem return
-10 57 hstem 19 83 vstem 250 81 vstem return
-10 58 hstem 19 83 vstem 250 81 vstem return
-17 -14 -12 -5 -15 0 rrcurveto -23 -7 14 44 hvcurveto 195 vlineto 0 51 -5 28 -14 23 rrcurveto -21 38 -43 20 -61 0 rrcurveto -51 0 -48 -14 -28 -23 rrcurveto -25 -21 -16 -29 0 -25 rrcurveto -23 19 -20 24 vhcurveto 24 21 20 22 hvcurveto 0 4 -1 5 -1 7 rrcurveto -2 9 -1 8 0 7 rrcurveto 27 32 22 40 vhcurveto 49 27 -29 -54 hvcurveto -61 vlineto -154 -62 -17 -8 -43 -38 rrcurveto -22 -20 -14 -34 0 -33 rrcurveto 44 1 3 callothersubr pop callsubr -63 43 -44 62 vhcurveto 44 0 41 21 61 52 rrcurveto 45 1 3 callothersubr pop callsubr 5 -53 18 -20 41 0 rrcurveto 34 0 21 12 35 38 rrcurveto closepath 46 1 3 callothersubr pop callsubr -155 83 rmoveto 0 -31 -5 -9 -21 -13 rrcurveto -24 -14 -28 -8 -21 0 rrcurveto -35 -28 34 43 hvcurveto 4 vlineto 0 59 41 36 121 44 rrcurveto closepath return
0 99 vstem 199 99 vstem return
-27 -22 -22 -27 hvcurveto -28 21 -22 27 vhcurveto 28 23 22 27 hvcurveto 27 -23 23 -27 vhcurveto closepath 199 hmoveto -27 -22 -22 -27 hvcurveto -28 21 -22 27 vhcurveto 28 23 22 27 hvcurveto 27 -23 23 -27 vhcurveto closepath return
658 20 hstem return
154 97 rlineto 21 13 9 13 0 16 rrcurveto 20 -13 12 -22 vhcurveto -15 0 -9 -5 -18 -18 rrcurveto -147 -148 rlineto closepath return
658 20 hstem return
-147 148 rlineto -18 18 -9 5 -15 0 rrcurveto -21 -13 -12 -19 hvcurveto 0 -16 10 -15 19 -12 rrcurveto 154 -97 rlineto closepath return
654 20 hstem return
-125 167 rlineto -62 hlineto -124 -167 rlineto 34 hlineto 121 103 rlineto 122 -103 rlineto closepath return
532 56 hstem return
578 55 hstem return
532 56 hstem return
-17 -37 -13 -13 -23 0 rrcurveto -15 0 -19 5 -19 10 rrcurveto -24 12 rlineto 57 1 3 callothersubr pop callsubr -24 12 -24 6 -22 0 rrcurveto -50 0 -36 -36 -15 -65 rrcurveto 29 hlineto 11 31 17 15 23 0 rrcurveto 12 0 14 -4 15 -7 rrcurveto 23 -11 rlineto 58 1 3 callothersubr pop callsubr 41 -20 15 -4 25 0 rrcurveto 55 0 29 30 21 76 rrcurveto closepath return
512 34 hstem 677 34 hstem 0 34 vstem 165 34 vstem return
-56 -45 -44 -55 hvcurveto -56 43 -44 55 vhcurveto 56 45 44 55 hvcurveto 54 -45 46 -53 vhcurveto closepath -3 -34 rmoveto 37 30 -29 -36 hvcurveto -37 -29 -29 -38 vhcurveto -35 -29 29 37 hvcurveto 35 30 30 34 vhcurveto closepath return
-10 69 hstem 277 32 hstem 424 36 hstem return
-48 -76 -43 -29 -64 0 rrcurveto -55 0 -42 26 -29 54 rrcurveto -20 39 -8 35 -2 64 rrcurveto 308 hlineto -8 65 -10 29 -25 32 rrcurveto -30 36 -46 21 -52 0 rrcurveto -124 -85 -100 -146 hvcurveto -138 72 -86 115 vhcurveto 96 0 74 59 42 108 rrcurveto closepath -325 152 rmoveto 11 79 34 36 61 0 rrcurveto 61 0 24 -28 13 -87 rrcurveto closepath return
0 15 hstem 390 15 hstem 440 20 hstem 79 84 vstem return
-155 -55 rlineto -15 vlineto 8 1 rlineto 12 2 13 1 9 0 rrcurveto 24 9 -16 -44 hvcurveto -232 vlineto 0 -72 -10 -11 -69 -4 rrcurveto -15 vlineto 237 hlineto 15 vlineto -66 5 -8 10 0 72 rrcurveto 355 vlineto closepath return
0 99 vstem 159 99 vstem return
-27 -22 -22 -27 hvcurveto -28 21 -22 27 vhcurveto 28 23 22 27 hvcurveto 27 -23 23 -27 vhcurveto closepath 159 hmoveto -27 -22 -22 -27 hvcurveto -28 21 -22 27 vhcurveto 28 23 22 27 hvcurveto 27 -23 23 -27 vhcurveto closepath return
0 15 hstem 405 55 hstem 64 84 vstem 324 84 vstem return
7 3 9 1 11 0 rrcurveto 28 9 -15 -49 hvcurveto -248 vlineto 0 -57 -11 -14 -51 -4 rrcurveto -15 vlineto 212 hlineto 15 vlineto -51 4 -15 12 0 36 rrcurveto 281 vlineto 47 45 23 12 33 0 rrcurveto 49 24 -31 -66 hvcurveto -209 vlineto 0 -63 -13 -17 -50 -4 rrcurveto -15 vlineto 208 hlineto 15 vlineto -49 5 -12 12 0 49 rrcurveto 229 vlineto 94 -44 56 -74 vhcurveto -46 0 -31 -17 -68 -64 rrcurveto 79 vlineto -7 2 rlineto -49 -18 -34 -11 -55 -16 rrcurveto closepath return
-10 28 hstem 432 28 hstem 0 90 vstem 351 90 vstem return
-131 -90 -96 -139 hvcurveto -135 93 -100 126 vhcurveto 126 96 105 139 hvcurveto 132 -92 94 -128 vhcurveto closepath -15 -28 rmoveto 30 0 24 -9 23 -21 rrcurveto 41 -37 27 -80 0 -85 rrcurveto -113 -44 -69 -74 vhcurveto -41 0 -36 23 -22 41 rrcurveto -28 52 -16 70 0 71 rrcurveto 94 47 63 69 vhcurveto closepath return
430 20 hstem 0 62 vstem 227 70 vstem return
-10 22 hstem 437 22 hstem 0 62 vstem 227 70 vstem return
0 20 hstem 0 62 vstem 227 70 vstem return
-10 22 hstem 437 22 hstem 0 62 vstem 227 70 vstem return
-4 136 rlineto -11 hlineto -2 -2 rlineto -9 -7 -1 -1 -4 0 rrcurveto -6 0 -10 2 -11 5 rrcurveto 73 1 3 callothersubr pop callsubr -21 8 -23 4 -24 0 rrcurveto -82 -56 -50 -73 hvcurveto 0 -56 32 -39 85 -49 rrcurveto 58 -33 rlineto 35 -20 17 -24 0 -31 rrcurveto -44 -32 -28 -51 vhcurveto -69 0 -35 38 -23 102 rrcurveto -16 hlineto -156 vlineto 13 hlineto 7 10 4 2 12 0 rrcurveto 74 1 3 callothersubr pop callsubr 11 0 11 -2 24 -6 rrcurveto 75 1 3 callothersubr pop callsubr 28 -6 25 -4 21 0 rrcurveto 76 64 58 70 hvcurveto 0 50 -23 33 -61 36 rrcurveto -108 64 rlineto -28 16 -15 25 0 27 rrcurveto 41 31 27 46 vhcurveto 57 0 30 -33 23 -90 rrcurveto closepath return
654 20 hstem return
-34 hlineto -122 -103 rlineto -121 103 rlineto -34 hlineto 124 -167 rlineto 62 hlineto closepath return
436 14 hstem 62 84 vstem 324 84 vstem return
-10 58 hstem 433 17 hstem 62 84 vstem 324 84 vstem return
-10 58 hstem 436 14 hstem 62 84 vstem 324 84 vstem return
-9 20 hstem 62 84 vstem 324 84 vstem return
-5 hlineto -46 -11 11 46 hvcurveto 343 vlineto -158 hlineto 80 1 3 callothersubr pop callsubr -17 vlineto 62 -3 12 -10 0 -50 rrcurveto -235 vlineto 0 -27 -5 -15 -12 -9 rrcurveto -28 -24 -31 -12 -31 0 rrcurveto -39 -32 34 42 hvcurveto 81 1 3 callothersubr pop callsubr 326 vlineto -146 hlineto -14 vlineto 48 -3 14 -15 0 -46 rrcurveto -252 vlineto -79 48 -51 73 vhcurveto 37 0 39 16 27 27 rrcurveto 43 43 rlineto -83 vlineto 82 1 3 callothersubr pop callsubr 4 -2 rlineto 50 20 36 11 51 14 rrcurveto closepath return
-218 84 hstem 430 20 hstem return
-135 hlineto -15 vlineto 31 17 -9 -16 hvcurveto 0 -4 -1 -6 -3 -7 rrcurveto -97 -276 rlineto -115 253 rlineto -7 14 -3 13 0 11 rrcurveto 0 18 15 7 43 2 rrcurveto 15 vlineto -206 hlineto -14 vlineto 26 -4 17 -11 8 -17 rrcurveto 114 -246 rlineto 3 -8 rlineto 4 -12 5 -10 6 -8 rrcurveto 27 -48 17 -39 0 -15 rrcurveto 0 -16 -23 -61 -17 -31 rrcurveto -15 -25 -21 -19 -14 0 rrcurveto -6 0 -9 2 -11 5 rrcurveto -18 7 -18 4 -16 0 rrcurveto -24 -19 -19 -25 hvcurveto -33 31 -25 43 vhcurveto 68 0 46 55 55 145 rrcurveto 154 408 rlineto 13 32 11 10 24 3 rrcurveto closepath return
0 30 hstem 420 30 hstem return
-18 4 rlineto -10 -50 -6 -16 -13 -17 rrcurveto -14 -17 -34 -9 -51 0 rrcurveto -138 hlineto 269 405 rlineto 15 vlineto -347 hlineto -3 -118 rlineto 18 hlineto 9 73 15 15 60 0 rrcurveto 138 hlineto -266 -405 rlineto -15 vlineto 377 hlineto closepath return
0 19 hstem 643 19 hstem 96 102 vstem 461 115 vstem return
0 37 hstem 625 37 hstem 96 102 vstem 461 115 vstem return
0 37 hstem 625 37 hstem 96 102 vstem 440 102 vstem return
0 37 hstem 625 37 hstem 96 102 vstem 461 115 vstem return
0 37 hstem 625 37 hstem 96 102 vstem 440 102 vstem return
0 37 hstem 625 37 hstem 88 102 vstem 560 109 vstem return
643 19 hstem 88 102 vstem 560 109 vstem return
0 37 hstem 625 37 hstem 88 102 vstem 560 109 vstem return
0 19 hstem 327 41 hstem 643 19 hstem 87 102 vstem return
0 19 hstem 87 102 vstem return
0 39 hstem 87 102 vstem return
0 19 hstem 643 19 hstem 84 102 vstem 417 109 vstem return
288 40 hstem 625 37 hstem 84 102 vstem 417 109 vstem return
0 19 hstem 643 19 hstem 85 102 vstem 421 109 vstem return
625 37 hstem 85 102 vstem 421 109 vstem return
0 38 hstem 398 99 vstem return
0 19 hstem 260 39 hstem 398 99 vstem return
0 38 hstem 260 39 hstem 329 37 hstem 626 36 hstem 398 99 vstem return
-6 37 hstem 329 37 hstem 632 36 hstem 0 112 vstem 401 100 vstem return
-6 37 hstem 626 36 hstem 0 112 vstem 401 100 vstem return
632 36 hstem 0 112 vstem 401 100 vstem return
-215 35 hstem -100 38 hstem -14 44 hstem 636 40 hstem 0 116 vstem 325 75 vstem return
0 37 hstem 625 37 hstem 88 102 vstem 560 109 vstem return
315 44 hstem 643 19 hstem 88 102 vstem 560 109 vstem return
0 37 hstem 315 44 hstem 625 37 hstem 88 102 vstem 560 109 vstem return
0 39 hstem 643 19 hstem 87 102 vstem return
0 15 hstem 390 15 hstem 440 20 hstem 581 102 hstem 62 102 vstem return
-218 34 hstem 440 20 hstem 581 102 hstem 162 102 vstem return
-217 217 hstem 70 84 vstem 379 86 vstem return
-217 18 hstem -10 32 hstem 400 60 hstem 70 84 vstem 379 86 vstem return
-217 14 hstem -10 61 hstem 432 29 hstem 0 86 vstem 317 84 vstem return
-10 52 hstem 418 32 hstem 57 84 vstem return
-10 52 hstem 418 32 hstem 0 242 vstem return
-10 52 hstem 418 32 hstem 57 84 vstem return
-10 52 hstem 418 32 hstem 0 242 vstem return
-10 48 hstem 436 24 hstem 0 87 vstem 108 128 vstem return
-10 67 hstem 0 87 vstem 108 128 vstem return
-10 48 hstem 277 30 hstem 431 29 hstem 0 87 vstem 108 128 vstem return
-10 26 hstem 0 90 vstem return
-10 67 hstem 431 29 hstem 0 90 vstem return
-10 26 hstem 277 30 hstem 431 29 hstem 0 90 vstem return
-9 29 hstem 656 27 hstem 362 94 vstem return
-9 29 hstem 656 27 hstem 61 84 vstem 322 87 vstem return
440 20 hstem 68 84 vstem 339 84 vstem return
417 33 hstem 658 25 hstem 68 84 vstem 339 84 vstem return
418 32 hstem 656 27 hstem 69 84 vstem 341 84 vstem return
418 32 hstem 584 74 hstem 69 84 vstem 341 84 vstem return
-217 217 hstem 70 84 vstem 379 86 vstem return
-217 18 hstem -10 32 hstem 400 60 hstem 70 84 vstem 379 86 vstem return
-14 36 hstem 616 60 hstem 275 79 vstem return
0 20 hstem 167 64 hstem 656 20 hstem 280 78 vstem return
-14 28 hstem 648 28 hstem 0 76 vstem 313 76 vstem return
-14 28 hstem 648 28 hstem 6 74 vstem 299 69 vstem return
-7 83 hstem 94 36 hstem 328 45 hstem 0 26 vstem 111 85 vstem return
-8 28 hstem 94 36 hstem 0 26 vstem 111 85 vstem return
0 20 hstem 430 30 hstem 0 77 vstem return
-9 73 hstem 430 30 hstem 0 77 vstem return
262 48 hstem 620 56 hstem 173 76 vstem return
-6 20 hstem 100 39 vstem return
-2 104 hstem 100 39 vstem return
-6 20 hstem 100 39 vstem return
-2 104 hstem 348 111 hstem 100 39 vstem return
-2 104 hstem 348 111 hstem 1 111 vstem return
-6 20 hstem 100 39 vstem 332 39 vstem return
-2 104 hstem 100 39 vstem 332 39 vstem return
-6 20 hstem 100 39 vstem 332 39 vstem return
-2 104 hstem 100 39 vstem 332 39 vstem return
-13 71 hstem 644 32 hstem 0 92 vstem 160 79 vstem 396 53 vstem 453 216 vstem return
-13 52 hstem 0 92 vstem 160 79 vstem 396 53 vstem 453 216 vstem return
-148 21 hstem 125 21 hstem 383 22 hstem 655 21 hstem 0 53 vstem 260 56 vstem return
-148 21 hstem 125 21 hstem 383 22 hstem 655 21 hstem 0 53 vstem 304 52 vstem return
144 43 hstem 0 84 vstem 205 71 vstem 653 40 vstem return
-14 39 hstem 143 33 hstem 464 44 hstem 645 31 hstem 0 84 vstem 205 71 vstem 653 40 vstem return
144 43 hstem 464 44 hstem 0 84 vstem 205 71 vstem 653 40 vstem return
643 19 hstem 0 76 vstem 194 66 vstem 318 66 vstem return
640 22 hstem 0 76 vstem 194 66 vstem 318 66 vstem return
-6 20 hstem 100 39 vstem return
-2 104 hstem 100 39 vstem return
394 47 hstem 0 63 vstem 154 71 vstem return
0 65 hstem 343 63 hstem 53 81 vstem 604 92 vstem return
-14 20 hstem 90 57 hstem 262 48 hstem 620 56 hstem 174 76 vstem return
-13 20 hstem 289 34 hstem 583 25 hstem 632 30 hstem 0 76 vstem 298 25 vstem 388 76 vstem 685 26 vstem return
289 34 hstem 656 20 hstem 0 76 vstem 298 25 vstem 388 76 vstem 685 26 vstem return
632 30 hstem 0 76 vstem 298 25 vstem 388 76 vstem 685 26 vstem return
-19 27 hstem 302 28 hstem 0 71 vstem 260 24 vstem 340 72 vstem 602 23 vstem 702 72 vstem 964 23 vstem return
-10 37 hstem 430 20 hstem 24 88 vstem 306 88 vstem return
